{
  "products": [
    {
      "product": "Gaseosa Pepsi 3L",
      "description": "Gaseosa 3 litros no retornable",
      "img": "https://img.rappi.com/products/low/223738.png",
      "category": "Bebidas",
      "price": 7000,
      "stock": 35,
      "vendidos": 15
    },
    {
      "product": "Gaseosa Sprite 3L",
      "description": "Gaseosa 3 litros no retornable",
      "category": "Bebidas",
      "img": "https://img.rappi.com/products/low/64216.png",
      "price": 6000,
      "stock": 55,
      "vendidos": 8
    },
    {
      "product": "Gaseosa Coca cola 350 ml",
      "description": "Gaseosa personal no retornable",
      "img": "https://img.rappi.com/products/low/255178-1504125708.png",
      "category": "Bebidas",
      "price": 3500,
      "stock": 285,
      "vendidos": 155
    },
    {
      "product": "Gaseosa Sprite 350 ml",
      "description": "Gaseosa personal no retornable",
      "img": "https://img.rappi.com/products/low/184770.png",
      "category": "Bebidas",
      "price": 3500,
      "stock": 180,
      "vendidos": 115
    },
    {
      "product": "McDoland's cuarto libra combo",
      "description": "Hamburguesa en combo con papas y gaseosa 12 Onz.",
      "img": "https://img.rappi.com/products/low/2089938708-1507741698.png",
      "category": "Hamburguesas",
      "price": 35000,
      "stock": 115,
      "vendidos": 280
    },
    {
      "product": "McDoland's media libra combo",
      "description": "Hamburguesa en combo con papas y gaseosa 12 Onz.",
      "img": "https://img.rappi.com/products/low/2089945915-1507745522.png",
      "category": "Hamburguesas",
      "price": 39000,
      "stock": 85,
      "vendidos": 210
    },
    {
      "product": "McDoland's con queso combo",
      "description": "Hamburguesa en combo con papas y gaseosa 12 Onz.",
      "img": "https://img.rappi.com/products/low/2089938859-1507924417.png",
      "category": "Hamburguesas",
      "price": 15000,
      "stock": 230,
      "vendidos": 82
    },
    {
      "product": "El Corral tradicional combo",
      "description": "Hamburguesa en combo con papas y gaseosa 12 Onz.",
      "img": "https://img.rappi.com/products/low/1000016797-1504034872.png",
      "category": "Hamburguesas",
      "price": 32900,
      "stock": 85,
      "vendidos": 108
    },
    {
      "product": "El Corral criolla combo",
      "description": "Hamburguesa en combo con papas y gaseosa 12 Onz.",
      "img": "https://img.rappi.com/products/low/1000016797-1504034872.png",
      "category": "Hamburguesas",
      "price": 30900,
      "stock": 15,
      "vendidos": 85
    },
    {
      "product": "Manzana verde",
      "description": "Manzana Verde. Aproximadamente 3 unidades pesan una libra",
      "img": "https://img.rappi.com/products/low/1231-1504889199.png",
      "category": "Frutas y verduras",
      "price": 2007,
      "stock": 40,
      "vendidos": 10
    },
    {
      "product": "Arándanos",
      "description": "Arándanos",
      "img": "https://img.rappi.com/products/low/918197-1504891884.png",
      "category": "Frutas y verduras",
      "price": 5650,
      "stock": 0,
      "vendidos": 50
    },
    {
      "product": "Fresa Extra",
      "description": "Fresa Extra",
      "img": "https://img.rappi.com/products/low/1720-1504891911.png",
      "category": "Frutas y verduras",
      "price": 5840,
      "stock": 0,
      "vendidos": 70
    },
    {
      "product": "Pitahaya",
      "description": "Pitahaya. Aproximadamente 2 unidades pesan una libra",
      "img": "https://img.rappi.com/products/low/1244-1504889535.png",
      "category": "Frutas y verduras",
      "price": 2176,
      "stock": 0,
      "vendidos": 39
    },
    {
      "product": "Filete Antillana",
      "description": "Filete De Salmon, 450 Gramo(s).",
      "img": "https://img.rappi.com/products/low/548417.png",
      "category": "Congelados",
      "price": 31750,
      "stock": 35,
      "vendidos": 15
    },
    {
      "product": "Especialidades Pesquera Jaramillo",
      "description": "Salmon Ahumado Royal, 100 Gramo(s).",
      "img": "https://img.rappi.com/products/low/142699-1495036855.png",
      "category": "Congelados",
      "price": 19725,
      "stock": 10,
      "vendidos": 5
    }
  ]
}
